[
  {
    "id": { "value": 0, "valid": true },
    "title": { "value": "Tower Saas Center", "valid": true},
    "fullname": { "value": "John Doe", "valid": true },
    "email": { "value": "contact@tower.com", "valid": true },
    "color": { "value": "orange-600", "valid": true },
    "jobposition": { "value": "Contact", "valid": true },
    "address": { "value": "3763 W. Dallas Center", "valid": true },
    "phone": { "value": "(099) 9999-0000", "valid": true }
  },
  {
    "id": { "value": 3, "valid": true },
    "title": { "value": "Kaio Center", "valid": true},
    "fullname": { "value": "Kaio Joe", "valid": true },
    "email": { "value": "kaio@center.com", "valid": true },
    "color": { "value": "green-700", "valid": true },
    "jobposition": { "value": "CEO - Company", "valid": true },
    "address": { "value": "3763 W. Est Cost Center", "valid": true },
    "phone": { "value": "(033) 2222-0000", "valid": true }
  },
  {
    "id": { "value": 13, "valid": true },
    "title": { "value": "Middletown Business", "valid": true},
    "fullname": { "value": "Muiray Dash", "valid": true },
    "email": { "value": "dash@middletown.com", "valid": true },
    "color": { "value": "teal-600", "valid": true },
    "jobposition": { "value": "HR - Head", "valid": true },
    "address": { "value": "63 South Center", "valid": true },
    "phone": { "value": "(099) 5522-1230", "valid": true }
  },
  {
    "id": { "value": 4, "valid": true },
    "title": { "value": "Cache Center", "valid": true},
    "fullname": { "value": "Maximum Josh", "valid": true },
    "email": { "value": "maiximum@cache.com", "valid": true },
    "color": { "value": "pink-600", "valid": true },
    "jobposition": { "value": "Contact", "valid": true },
    "address": { "value": "3763 W. Dallas Center", "valid": true },
    "phone": { "value": "(099) 2229-0000", "valid": true }
  },
  {
    "id": { "value": 5, "valid": true },
    "title": { "value": "Jullie Nath CO", "valid": true},
    "fullname": { "value": "Jullie Nath", "valid": true },
    "email": { "value": "contact@jullie.com", "valid": true },
    "color": { "value": "red-700", "valid": true },
    "jobposition": { "value": "Contact", "valid": true },
    "address": { "value": "200 Texas Center", "valid": true },
    "phone": { "value": "(013) 2199-0010", "valid": true }
  },
  {
    "id": { "value": 6, "valid": true },
    "title": { "value": "Mia Palo", "valid": true},
    "fullname": { "value": "Kahi Nakato", "valid": true },
    "email": { "value": "contact@mia.com", "valid": true },
    "color": { "value": "blue-600", "valid": true },
    "jobposition": { "value": "Contact", "valid": true },
    "address": { "value": "1061 Japan Street", "valid": true },
    "phone": { "value": "(010) 9299-0880", "valid": true }
  }
]
